…
```r
#read in data
mydata <- read.table(unz("activity.zip", "activity.csv"), header=T, sep = ",")
#convert date into date format
mydata$date <- as.Date(mydata$date)
#convert to tibble
mydata <- as_tibble(mydata)
#look at data
mydata
```

```
## # A tibble: 17,568 x 3
##    steps date       interval
##    <int> <date>        <int>
##  1    NA 2012-10-01        0
##  2    NA 2012-10-01        5
##  3    NA 2012-10-01       10
##  4    NA 2012-10-01       15
##  5    NA 2012-10-01       20
##  6    NA 2012-10-01       25
##  7    NA 2012-10-01       30
##  8    NA 2012-10-01       35
##  9    NA 2012-10-01       40
## 10    NA 2012-10-01       45
## # … with 17,558 more rows
```
…
